{
  "type": "service_account",
  "project_id": "leisure-project",
  "private_key_id": "4f7de6100d34324f302b3d0e3a26ccc81cfe57b2",
  "private_key": "-----BEGIN PRIVATE KEY-----\nMIIEvgIBADANBgkqhkiG9w0BAQEFAASCBKgwggSkAgEAAoIBAQCnrOVXJp5AAXnt\nwA4BGZSbv6ANjv1rKR4TbGOjPQiU/NzrJa/Q+LbckzgxzowcLqCbs860A34pD6lc\n69F7UVDcZT5OF5OojpSWZwYHWW/CiQ0cR6utfj37R3ewrIvxXFvW4vE9oblaGSoF\nEckvoZGfNgs7YU81FDfnCfWGthStsQ22Jb4DdVFpcuAd6Xboe41y7E75M+rHzvpW\nDol+ZLfMXM6BCqW77J09vGTL4A1s5NdCcADZflJRcDt2xVbfH4PumxoZmNK8TqHD\nEMS/3r20ng/9zqoWyCDOdcHdyG7/cFZTa8pbdlDStney88F4TrO+MEkTSrJ2Gdmn\nRI9CdSF/AgMBAAECggEACg5eANCRnCAaim5CyMEafw7KkBWb0EH6ikqtXRxrd9gE\nfdvYRA2uleMEc0RCdew7+KqbgoNVHSxRyX9hJGa3lUhDKNbUJb9LXQvXujgcckva\n6+/GdZTFLd1W6dMnX3XdEjGxKzOYVLV+pigvazpi6+wHV2vaHsJUKfiYb5ha/CGx\nyeKpEBm654cXJ9gw7GsC2d+Pq6TSprnZb5xi2lzsiI3iGYpaiKYDYQaXrUqgSW0w\nQD0ng2t/TjF23N9+ByWf1qP0ZSq7EZxsign6IOFny4XAzf07ckYewnyzj3xOB8nE\nWy3LdC+qFR1jGUwioCG1/ps6Y/MVDVvWyCChKZqh1QKBgQDk1iLOnFQw1zGfozms\nlDgtv0Bul6I1aZz0XYHHoxxlgvLzLB7XX0Aljf8MJbRO/m+b27hkid46BrouZ2/T\ntvTbO7nvwU4ZgAcYK6yWeynTfK5mzeJ19fsmd6LuWNcArRVHbK6pn4Dpt68UVPiR\nqVydNbnlCZQ7DLWuDewHFY8QkwKBgQC7lDOXhfM93R/DIzmPFbVeiXjHIRbZ1qgI\nBm847v/WLgf0LzaB3V7tLnSEESFAqKeZjcUTj/Ezon21XubcLszWeBRCRdn3HvAn\nT2Mgsp06Zng4fl8RSEQiUrCxtCwdEFuiju502l4NRVV3lBciHQRAZF1yD+9C2rHl\nUvoSd5465QKBgQC34I1lgd5wxGoegXUVhKBDujsW4oc37h5tiTmAZkOqGfgIiDpc\nCzCrPJdldmKVWwPptDtNpi7IZ6FxKjKEZ64G/84fpi+Qc/y/YlCzNlJcmwI0n1lK\nOhbOSTHF3eMdqva/Rshuijl3E97+Mmzt9q3xsTsnnHPcoxDVxGAVLTChOwKBgA5M\nqfIvH+/jX3x8vvKNcRoX2ME1YIyStJSICQqKDa7CK5EN2FXmDkp+dBttQt+u+7fU\n+uUW4AhTpsmgxnCakLr4xHKY6JjSHvSgNKpVc270SM3ltFGY9Li5HQcu+P3uNU4b\nH0qBKxJP6sgG3gyXsa9G92iulkq+aTlWLgIiZEmRAoGBAOB5p+Q0zw4r+jD+ALK4\nLHMVJs9aatcr0MB0tpCBM4S53VEm+43AVNoYQj/sQzCiQASmW66qd/sIDCgxzcrz\n55ob8WMq4kTcWvKbyL9PPdpkzbofE5iX6tVlKngDUGUVwic8rhNIMzrAYliZahzv\nWW3j0FpWofKmz3a7uNv3eski\n-----END PRIVATE KEY-----\n",
  "client_email": "firebase-adminsdk-orvkt@leisure-project.iam.gserviceaccount.com",
  "client_id": "112540952079166483803",
  "auth_uri": "https://accounts.google.com/o/oauth2/auth",
  "token_uri": "https://oauth2.googleapis.com/token",
  "auth_provider_x509_cert_url": "https://www.googleapis.com/oauth2/v1/certs",
  "client_x509_cert_url": "https://www.googleapis.com/robot/v1/metadata/x509/firebase-adminsdk-orvkt%40leisure-project.iam.gserviceaccount.com"
}
